{
  "project_info": {
    "project_number": "565305119647",
    "firebase_url": "https://flutter-uber-clone-feab0-default-rtdb.firebaseio.com",
    "project_id": "flutter-uber-clone-feab0",
    "storage_bucket": "flutter-uber-clone-feab0.appspot.com"
  },
  "client": [
    {
      "client_info": {
        "mobilesdk_app_id": "1:565305119647:android:92be353093ea03dc78a3aa",
        "android_client_info": {
          "package_name": "com.example.e_mechanic"
        }
      },
      "oauth_client": [],
      "api_key": [
        {
          "current_key": "AIzaSyC6BB1X6ImSswSGbHJ1nrFNporc9_NdNbw"
        }
      ],
      "services": {
        "appinvite_service": {
          "other_platform_oauth_client": []
        }
      }
    },
    {
      "client_info": {
        "mobilesdk_app_id": "1:565305119647:android:cb880102629a55ea78a3aa",
        "android_client_info": {
          "package_name": "com.example.uberclone"
        }
      },
      "oauth_client": [],
      "api_key": [
        {
          "current_key": "AIzaSyC6BB1X6ImSswSGbHJ1nrFNporc9_NdNbw"
        }
      ],
      "services": {
        "appinvite_service": {
          "other_platform_oauth_client": []
        }
      }
    }
  ],
  "configuration_version": "1"
}